<?xml version="1.0" standalone="no"?>
<!DOCTYPE svg PUBLIC "-//W3C//DTD SVG 20010904//EN"
 "http://www.w3.org/TR/2001/REC-SVG-20010904/DTD/svg10.dtd">
<svg version="1.0" xmlns="http://www.w3.org/2000/svg"
 width="260.000000pt" height="260.000000pt" viewBox="0 0 260.000000 260.000000"
 preserveAspectRatio="xMidYMid meet">
<metadata>
Created by potrace 1.11, written by Peter Selinger 2001-2013
</metadata>
<g transform="translate(0.000000,260.000000) scale(0.100000,-0.100000)"
fill="#000000" stroke="none">
<path d="M1230 2392 c-32 -26 -36 -85 -11 -169 23 -78 27 -128 10 -139 -6 -3
-17 -21 -25 -39 -12 -30 -19 -34 -91 -50 -106 -23 -191 -59 -277 -115 -64 -42
-75 -46 -91 -34 -10 8 -28 14 -40 14 -36 0 -63 28 -99 104 -20 41 -48 84 -62
95 -61 48 -149 11 -142 -60 3 -35 50 -78 155 -144 38 -24 50 -38 59 -70 6 -22
14 -47 18 -57 5 -11 -4 -32 -28 -66 -68 -95 -117 -215 -150 -372 -5 -23 -40
-51 -90 -73 -13 -5 -44 0 -87 13 -96 29 -163 27 -196 -6 -21 -21 -24 -32 -20
-61 12 -74 56 -86 178 -49 102 31 119 32 152 6 14 -11 32 -20 40 -20 10 0 18
-22 27 -76 19 -123 63 -231 136 -337 57 -82 42 -122 -67 -182 -77 -42 -119
-89 -119 -132 0 -32 51 -83 84 -83 31 0 88 54 117 113 37 72 58 96 96 106 34
10 42 7 102 -31 95 -60 203 -106 301 -130 112 -27 289 -21 395 12 79 25 189
78 254 123 79 54 148 33 201 -63 65 -117 124 -159 176 -126 80 53 44 141 -83
201 -54 26 -93 66 -93 96 0 9 -3 25 -6 33 -5 14 -9 14 -22 4 -20 -17 -12 -1
35 64 51 71 101 188 126 295 21 91 25 98 49 101 14 2 34 12 44 23 21 23 41 24
114 4 144 -40 189 -37 210 16 10 22 10 35 1 58 -23 54 -91 65 -188 31 -75 -26
-106 -25 -151 5 -20 14 -42 25 -49 25 -7 0 -13 11 -13 23 0 32 -33 158 -60
229 -11 31 -43 90 -69 131 -43 65 -47 76 -35 92 8 10 14 28 14 40 0 32 25 60
82 93 29 16 72 47 96 67 52 45 58 91 16 124 -62 49 -124 13 -188 -109 -35 -68
-36 -69 -110 -93 l-49 -15 -56 38 c-91 62 -159 91 -276 120 -88 22 -111 31
-113 46 -2 10 -13 29 -24 41 -18 19 -20 30 -14 77 3 31 13 81 21 113 8 31 15
67 15 80 0 53 -83 83 -130 45z m-60 -1219 l0 -615 -37 7 c-137 24 -317 173
-391 322 -55 112 -76 211 -69 328 12 205 120 391 292 500 61 39 182 88 197 79
4 -3 8 -282 8 -621z m338 606 c136 -46 271 -163 340 -296 60 -117 76 -180 75
-303 -1 -184 -66 -334 -202 -462 -77 -73 -200 -143 -274 -155 l-37 -6 0 622
c0 708 -12 637 98 600z"/>
</g>
</svg>
